LIST OF DECLINED TRANSACTIONS                                                                                             Print Date: 15/06/2020
Merchant          GIVE EDUCATION                                                                                              Page No.: 1 From 1
Seq. No. Response                Reference           Card No            Name                        Amount      rsp code   Retrieval No.   Batch
------------------------------------------------------------------------------------------------------------------------------------------------
    1   Do not Honour   primapvt                  4830990001065077         prima phalasin               850.00      05     000011004085       41
------------------------------------------------------------------------------------------------------------------------------------------------
          TOTAL:     1   Items                                                                          850.00    Bahts
================================================================================================================================================
